Portfolio - House Prices in Porltand, OR
…
Show performance for every single fold:

Show the code

log_res %>%  collect_metrics(summarize = FALSE)

# A tibble: 40 × 5
   id    .metric   .estimator .estimate .config             
   <chr> <chr>     <chr>          <dbl> <chr>               
 1 Fold1 recall    binary         0.786 Preprocessor1_Model1
 2 Fold1 precision binary         0.836 Preprocessor1_Model1
 3 Fold1 f_meas    binary         0.810 Preprocessor1_Model1
 4 Fold1 accuracy  binary         0.816 Preprocessor1_Model1
 5 Fold1 kap       binary         0.631 Preprocessor1_Model1
 6 Fold1 sens      binary         0.786 Preprocessor1_Model1
 7 Fold1 spec      binary         0.845 Preprocessor1_Model1
 8 Fold1 roc_auc   binary         0.901 Preprocessor1_Model1
 9 Fold2 recall    binary         0.778 Preprocessor1_Model1
10 Fold2 precision binary         0.820 Preprocessor1_Model1
# … with 30 more rows
…
