Portfolio - Time Series Project
…
Show the code

dcmp <- pdx %>%
  model(stl = STL(Price))
components(dcmp)

# A dable: 91 x 8 [1M]
# Key:     RegionName, .model [1]
# :        Price = trend + season_year + remainder
   RegionName .model year_month Price trend season_year remainder season_adjust
   <chr>      <chr>       <mth> <dbl> <dbl>       <dbl>     <dbl>         <dbl>
 1 Portland   stl      2015 Mar 1327. 1353.     -15.6      -10.5          1342.
 2 Portland   stl      2015 Apr 1345. 1363.      -9.23      -8.86         1354.
 3 Portland   stl      2015 May 1369. 1373.       0.471     -4.41         1368.
 4 Portland   stl      2015 Jun 1385. 1383.       7.33      -4.95         1378.
 5 Portland   stl      2015 Jul 1406. 1393.      14.4       -1.16         1391.
 6 Portland   stl      2015 Aug 1425. 1402.      16.9        5.33         1408.
 7 Portland   stl      2015 Sep 1442. 1412.      16.9       13.3          1425.
 8 Portland   stl      2015 Oct 1448. 1421.       9.29      17.5          1439.
 9 Portland   stl      2015 Nov 1445. 1431.       0.564     13.3          1444.
10 Portland   stl      2015 Dec 1444. 1440.     -11.0       14.4          1455.
# … with 81 more rows
…
